Statistiline modelleerimine 2017
…
library(reshape2)
usaldus = paneel %>%
  mutate(enne = case_when(!(t1.evalimiste.usaldus %in% 97:98) ~ t1.evalimiste.usaldus),
         parast = case_when(!(t2.evalimiste.usaldus %in% 97:98) ~ t2.evalimiste.usaldus)) %>%
  select(enne,parast) %>%
  melt() %>%
  na.omit() %>%
  group_by(variable,value = as.factor(value)) %>%
  summarise(count = n()) %>%
  mutate(pc = count/sum(count[variable==variable]))

usaldus

# A tibble: 22 x 4
# Groups:   variable [2]
   variable  value count         pc
     <fctr> <fctr> <int>      <dbl>
 1     enne      0   185 0.15651438
 2     enne      1    17 0.01438240
 3     enne      2    29 0.02453469
 4     enne      3    44 0.03722504
 5     enne      4    32 0.02707276
 6     enne      5    85 0.07191201
 7     enne      6    42 0.03553299
 8     enne      7    88 0.07445008
 9     enne      8   185 0.15651438
10     enne      9   176 0.14890017
# ... with 12 more rows
…
